%!Adobe-FontList 1.19
%Locale:0x409

%BeginFont
Handler:DirectoryHandler
FontType:Type1
FontName:Bryant-Bold
FamilyName:Bryant-Bold
StyleName:Regular
MenuName:Bryant-Bold
StyleBits:0
WeightClass:700
WidthClass:5
AngleClass:0
FullName:Bryant-Bold
WritingScript:Roman
OutlineFileName:\Bryant-Bold.otf
DataFormat:sfntData
UsesStandardEncoding:yes
isCFF:yes
hasSVG:no
VariableFontType:NonVariableFont
FileLength:23880
FileModTime:1099535082
NameArray:0,Mac,4,Bryant-Bold
NameArray:0,Win,1,Bryant-Bold
%EndFont

%BeginFont
Handler:DirectoryHandler
FontType:Type1
FontName:Bryant-Light
FamilyName:Bryant-Light
StyleName:Regular
MenuName:Bryant-Light
StyleBits:0
WeightClass:300
WidthClass:5
AngleClass:0
FullName:Bryant-Light
WritingScript:Roman
OutlineFileName:\Bryant-Light.otf
DataFormat:sfntData
UsesStandardEncoding:yes
isCFF:yes
hasSVG:no
VariableFontType:NonVariableFont
FileLength:26460
FileModTime:1099535082
NameArray:0,Mac,4,Bryant-Light
NameArray:0,Win,1,Bryant-Light
%EndFont

%BeginFont
Handler:DirectoryHandler
FontType:Type1
FontName:Bryant-Regular
FamilyName:Bryant-Regular
StyleName:Regular
MenuName:Bryant-Regular
StyleBits:0
WeightClass:400
WidthClass:5
AngleClass:0
FullName:Bryant-Regular
WritingScript:Roman
OutlineFileName:\Bryant-Regular.otf
DataFormat:sfntData
UsesStandardEncoding:yes
isCFF:yes
hasSVG:no
VariableFontType:NonVariableFont
FileLength:29352
FileModTime:1099535082
NameArray:0,Mac,4,Bryant-Regular
NameArray:0,Win,1,Bryant-Regular
%EndFont

%BeginFont
Handler:DirectoryHandler
FontType:Type1
FontName:MinionPro-Regular
FamilyName:Minion Pro
StyleName:Regular
MenuName:Minion Pro
StyleBits:0
WeightClass:400
WidthClass:5
AngleClass:0
FullName:Minion Pro
WritingScript:Roman
OutlineFileName:\MinionPro-Regular.otf
DataFormat:sfntData
UsesStandardEncoding:yes
isCFF:yes
hasSVG:no
VariableFontType:NonVariableFont
FileLength:218640
FileModTime:1558908190
DesignSize:110
NameArray:0,Mac,4,Minion Pro
NameArray:0,Win,1,Minion Pro
%EndFont

